{
  "__type__": "cc.AnimationClip",
  "_name": "moveRight",
  "_objFlags": 0,
  "_native": "",
  "_duration": 0.35,
  "sample": 60,
  "speed": 1,
  "wrapMode": "2",
  "curveData": {
    "comps": {
      "cc.Sprite": {
        "spriteFrame": [
          {
            "frame": 0,
            "value": {
              "__uuid__": "f7fcfe46-198c-4279-8f52-005a09c5775c"
            }
          },
          {
            "frame": 0.16666666666666666,
            "value": {
              "__uuid__": "ca1dfe4b-4212-46d2-9701-335a5fe57c61"
            }
          },
          {
            "frame": 0.3333333333333333,
            "value": {
              "__uuid__": "f7fcfe46-198c-4279-8f52-005a09c5775c"
            }
          }
        ]
      }
    }
  },
  "events": []
}