{
  "__type__": "cc.AnimationClip",
  "_name": "idle",
  "_objFlags": 0,
  "_native": "",
  "_duration": 0.016666666666666666,
  "sample": 60,
  "speed": 1,
  "wrapMode": 1,
  "curveData": {
    "comps": {
      "cc.Sprite": {
        "spriteFrame": [
          {
            "frame": 0,
            "value": {
              "__uuid__": "9372b4ce-24e0-470b-bcb4-c00e5d1cf7e0"
            }
          }
        ]
      }
    }
  },
  "events": []
}