{
  "__type__": "cc.AnimationClip",
  "_name": "moveUp",
  "_objFlags": 0,
  "_native": "",
  "_duration": 0.35,
  "sample": 60,
  "speed": 1,
  "wrapMode": "2",
  "curveData": {
    "comps": {
      "cc.Sprite": {
        "spriteFrame": [
          {
            "frame": 0,
            "value": {
              "__uuid__": "cfabbdc3-af5c-4fa8-a24b-7738859bc272"
            }
          },
          {
            "frame": 0.16666666666666666,
            "value": {
              "__uuid__": "9474d5d9-19cc-403a-8a01-6fb5b2d03d30"
            }
          },
          {
            "frame": 0.3333333333333333,
            "value": {
              "__uuid__": "cfabbdc3-af5c-4fa8-a24b-7738859bc272"
            }
          }
        ]
      }
    }
  },
  "events": []
}